0#2021-04-13T15:28:42.196#0#narsel#airat
1#2021-04-13T15:28:45.547#0#airat#narsel
2#2021-04-13T15:28:47.266#0#airat#narsel
3#2021-04-13T15:28:48.067#0#narsel#airat
4#2021-04-13T15:30:19.924#0#marsel#airat
5#2021-04-13T15:30:21.688#0#marsel#airat
6#2021-04-13T15:30:22.610#0#airat#marsel
7#2021-04-13T15:30:25.018#0#marsel#airat
8#2021-04-13T15:30:28.010#0#marsel#airat
9#2021-04-13T17:32:00.707#0#marsel#nemarsel
10#2021-04-13T17:32:01.640#0#nemarsel#marsel
11#2021-04-13T17:32:03.307#0#nemarsel#marsel
12#2021-04-13T17:32:04.111#0#marsel#nemarsel
13#2021-04-13T17:32:04.907#0#nemarsel#marsel
14#2021-04-13T17:35:35.210#0#marsel#nemarsel
15#2021-04-13T17:35:36.234#0#nemarsel#marsel
16#2021-04-13T17:35:38.291#0#nemarsel#marsel
17#2021-04-13T17:35:40.170#0#marsel#nemarsel
18#2021-04-13T17:35:41.491#0#nemarsel#marsel
19#2021-04-13T17:44:14.988#0#bd#dd
20#2021-04-13T17:44:17.771#0#dd#bd
21#2021-04-13T17:44:18.403#0#bd#dd
22#2021-04-13T17:44:18.971#0#dd#bd
23#2021-04-13T17:45:28.652#0#marsel#nemarsek
24#2021-04-13T17:45:29.476#0#nemarsek#marsel
25#2021-04-13T17:45:30.234#0#marsel#nemarsek
26#2021-04-13T17:45:32.332#0#nemarsek#marsel
27#2021-04-14T11:56:46.443#0#marsel#nemarsel
28#2021-04-14T11:56:52.334#0#marsel#nemarsel
29#2021-04-14T11:57:40.859#0#marsel#nemarsel
30#2021-04-14T11:57:41.778#0#nemarsel#marsel
31#2021-04-14T11:57:42.626#0#marsel#nemarsel
32#2021-04-14T11:57:45.890#0#marsel#nemarsel
33#2021-04-14T11:57:46.633#0#nemarsel#marsel
34#2021-04-14T12:00:04.598#0#marsel#nemarsel
35#2021-04-14T12:00:05.394#0#nemarsel#marsel
36#2021-04-14T12:00:06.177#0#marsel#nemarsel
37#2021-04-14T12:00:07.018#0#nemarsel#marsel
38#2021-04-14T12:00:08.666#0#nemarsel#marsel
39#2021-04-14T12:00:09.475#0#marsel#nemarsel
40#2021-04-14T12:00:10.499#0#nemarsel#marsel
41#2021-04-14T12:04:10.828#0#marsel#nemarsel
42#2021-04-14T12:04:12.298#0#marsel#nemarsel
43#2021-04-14T12:04:12.931#0#nemarsel#marsel
44#2021-04-14T12:04:13.530#0#marsel#nemarsel
45#2021-04-14T12:04:14.106#0#nemarsel#marsel
46#2021-04-14T12:04:16.099#0#marsel#nemarsel
47#2021-04-14T12:04:16.811#0#nemarsel#marsel
48#2021-04-14T14:53:12.788#0#marsel#nemarsel
49#2021-04-14T14:53:14.091#0#nemarsel#marsel
50#2021-04-14T14:53:15.698#0#nemarsel#marsel
51#2021-04-14T14:53:18.062#0#marsel#nemarsel
52#2021-04-14T14:53:19.122#0#nemarsel#marsel
53#2021-04-14T14:53:20.116#0#marsel#nemarsel
54#2021-04-14T14:55:48.299#0#marsel#nemarsel
55#2021-04-14T14:55:52.258#0#marsel#nemarsel
56#2021-04-14T14:55:53.179#0#nemarsel#marsel
57#2021-04-14T14:55:53.902#0#marsel#nemarsel
58#2021-04-14T14:59:19.335#0#mapsel#nemapsel
59#2021-04-14T14:59:20.522#0#nemapsel#mapsel
60#2021-04-14T14:59:22.379#0#nemapsel#mapsel
61#2021-04-14T15:26:06.273#0#marsel#nemarsel
62#2021-04-14T15:26:06.892#0#nemarsel#marsel
63#2021-04-14T15:26:07.451#0#marsel#nemarsel
64#2021-04-14T15:26:08.290#0#nemarsel#marsel
65#2021-04-14T15:26:09.850#0#nemarsel#marsel
66#2021-04-14T15:26:10.522#0#marsel#nemarsel
67#2021-04-14T15:26:11.340#0#nemarsel#marsel
68#2021-04-14T15:26:13.261#0#nemarsel#marsel
69#2021-04-14T15:37:59.291#0#marsel#nemarsel
70#2021-04-14T15:38:01.146#0#marsel#nemarsel
71#2021-04-14T15:38:02.715#0#marsel#nemarsel
72#2021-04-14T15:38:05.459#0#marsel#nemarsel
73#2021-04-14T15:40:55.499#0#marsel#nemarsel
74#2021-04-14T15:41:00.099#0#marsel#nemarsel
75#2021-04-14T15:41:01.332#0#marsel#nemarsel
76#2021-04-14T15:41:37.447#0#marsel#nemarsel
77#2021-04-14T15:41:39.266#0#nemarsel#marsel
78#2021-04-14T15:41:40.555#0#nemarsel#marsel
79#2021-04-14T15:41:41.179#0#marsel#nemarsel
80#2021-04-14T15:41:42.666#0#marsel#nemarsel
81#2021-04-14T15:41:43.660#0#nemarsel#marsel
82#2021-04-14T15:45:00.452#0#nemarsel#marsel
83#2021-04-14T15:45:01.276#0#marsel#nemarsel
84#2021-04-14T15:45:03.051#0#marsel#nemarsel
85#2021-04-14T15:48:46.813#0#marsel#nemarsel
86#2021-04-14T15:48:47.930#0#nemarsel#marsel
87#2021-04-14T15:48:48.659#0#marsel#nemarsel
88#2021-04-14T15:48:49.339#0#nemarsel#marsel
89#2021-04-14T15:48:52.037#0#nemarsel#marsel
90#2021-04-14T15:48:52.819#0#marsel#nemarsel
91#2021-04-14T15:48:53.652#0#nemarsel#marsel
92#2021-04-14T15:52:30.380#0#nemarsel#marsel
93#2021-04-14T15:52:31.171#0#marsel#nemarsel
94#2021-04-14T15:52:33.127#0#nemarsel#marsel
95#2021-04-14T15:52:33.673#0#marsel#nemarsel
96#2021-04-14T15:52:34.916#0#marsel#nemarsel
97#2021-04-14T15:52:35.756#0#nemarsel#marsel
98#2021-04-14T16:00:46.594#0#marsel#nemarsel
99#2021-04-14T16:00:47.602#0#nemarsel#marsel
100#2021-04-14T16:00:48.405#0#marsel#nemarsel
101#2021-04-14T16:00:49.211#0#nemarsel#marsel
102#2021-04-14T16:00:50.610#0#nemarsel#marsel
103#2021-04-14T16:00:54.140#0#nemarsel#marsel
104#2021-04-14T16:18:58.552#0#marsel#nemarsel
105#2021-04-14T16:18:59.491#0#nemarsel#marsel
106#2021-04-14T16:19:00.244#0#marsel#nemarsel
107#2021-04-14T16:19:04.875#0#marsel#nemarsel
108#2021-04-14T16:22:20.957#0#nemarsel#marsel
109#2021-04-14T16:22:21.523#0#marsel#nemarsel
110#2021-04-14T16:22:22.555#0#nemarsel#marsel
111#2021-04-14T16:22:24.035#0#nemarsel#marsel
112#2021-04-14T16:22:24.770#0#marsel#nemarsel
113#2021-04-14T16:22:26.699#0#marsel#nemarsel
114#2021-04-14T17:06:04.585#0#marsel#nemarsel
115#2021-04-14T17:06:05.115#0#nemarsel#marsel
116#2021-04-14T17:06:05.660#0#marsel#nemarsel
117#2021-04-14T17:06:06.187#0#nemarsel#marsel
118#2021-04-14T17:06:06.987#0#marsel#nemarsel
119#2021-04-14T17:06:08.984#0#nemarsel#marsel
120#2021-04-14T17:06:10.787#0#nemarsel#marsel
121#2021-04-14T17:09:00.776#0#nemarsel#marsel
122#2021-04-14T17:09:01.219#0#marsel#nemarsel
123#2021-04-14T17:09:01.947#0#nemarsel#marsel
124#2021-04-14T17:09:03.427#0#nemarsel#marsel
125#2021-04-14T17:39:44.398#0#marsek#nemarsel
126#2021-04-14T17:39:44.755#0#nemarsel#marsek
127#2021-04-14T17:39:45.081#0#marsek#nemarsel
128#2021-04-14T17:39:45.388#0#nemarsel#marsek
129#2021-04-14T17:39:46.111#0#marsek#nemarsel
130#2021-04-14T17:39:47.325#0#nemarsel#marsek
131#2021-04-14T17:39:48.892#0#nemarsel#marsek
132#2021-04-15T16:17:40.062#0#marsel#nemarsel
133#2021-04-15T16:17:40.636#0#nemarsel#marsel
134#2021-04-15T16:17:42.532#0#marsel#nemarsel
135#2021-04-15T16:17:45.493#0#marsel#nemarsel
